analisis_datos_experimentales_arduino
…
Unificamos todas las bases de datos a partir de la fecha

total<-camilo1%>%
  inner_join(valentina11)%>%
  inner_join(kenneth1)%>%
  inner_join(juan_felipe1)%>%
  inner_join(sebastian1)%>%
  inner_join(laura_11)%>%
  inner_join(laura22)%>%
  inner_join(july_andrea1)
total

# A tibble: 551 × 10
   timestamp1 camilo fecha               valen…¹ kenneth juan_…² sebas…³ laura_1
        <dbl>  <dbl> <dttm>                <dbl>   <dbl>   <dbl>   <dbl>   <dbl>
 1 1661947755   22.6 2022-08-31 07:09:15    50.2    32.0    28.9    31.6    42.5
 2 1661947756   22.1 2022-08-31 07:09:16    33.1    30.7    11.0    25.0    35.1
 3 1661947757   30.8 2022-08-31 07:09:17    37.5    47.1    10.7    51.7    35.4
 4 1661947758   37.6 2022-08-31 07:09:18    35.5    43.2    23.4    42.7    51.6
 5 1661947759   31.3 2022-08-31 07:09:19    51.5    42.8    37.6    34.7    46.2
 6 1661947760   28.8 2022-08-31 07:09:20    40.5    41.5    26.9    30.9    41.9
 7 1661947761   24.3 2022-08-31 07:09:21    33.7    35.7    31.2    32.1    43.0
 8 1661947762   31.1 2022-08-31 07:09:22    36.9    34.0    18.8    34.6    40.3
 9 1661947763   32.7 2022-08-31 07:09:23    39.5    41.9    14.8    46.3    39.8
10 1661947764   37.8 2022-08-31 07:09:24    45.7    39.1    23.5    31.5    50.4
# … with 541 more rows, 2 more variables: laura2 <dbl>, july_andrea <dbl>, and
#   abbreviated variable names ¹​valentina_1, ²​juan_felipe, ³​sebastian
# ℹ Use `print(n = ...)` to see more rows, and `colnames()` to see all variable names

total<-total[, c(1,3,2,4,5,6,7,8,9,10)]
total 

# A tibble: 551 × 10
   timestamp1 fecha               camilo valen…¹ kenneth juan_…² sebas…³ laura_1
        <dbl> <dttm>               <dbl>   <dbl>   <dbl>   <dbl>   <dbl>   <dbl>
 1 1661947755 2022-08-31 07:09:15   22.6    50.2    32.0    28.9    31.6    42.5
 2 1661947756 2022-08-31 07:09:16   22.1    33.1    30.7    11.0    25.0    35.1
 3 1661947757 2022-08-31 07:09:17   30.8    37.5    47.1    10.7    51.7    35.4
 4 1661947758 2022-08-31 07:09:18   37.6    35.5    43.2    23.4    42.7    51.6
 5 1661947759 2022-08-31 07:09:19   31.3    51.5    42.8    37.6    34.7    46.2
 6 1661947760 2022-08-31 07:09:20   28.8    40.5    41.5    26.9    30.9    41.9
 7 1661947761 2022-08-31 07:09:21   24.3    33.7    35.7    31.2    32.1    43.0
 8 1661947762 2022-08-31 07:09:22   31.1    36.9    34.0    18.8    34.6    40.3
 9 1661947763 2022-08-31 07:09:23   32.7    39.5    41.9    14.8    46.3    39.8
10 1661947764 2022-08-31 07:09:24   37.8    45.7    39.1    23.5    31.5    50.4
# … with 541 more rows, 2 more variables: laura2 <dbl>, july_andrea <dbl>, and
#   abbreviated variable names ¹​valentina_1, ²​juan_felipe, ³​sebastian
# ℹ Use `print(n = ...)` to see more rows, and `colnames()` to see all variable names
…
